<?xml version="1.0" encoding="UTF-8" standalone="no"?>
<!-- Created with Inkscape (http://www.inkscape.org/) -->

<svg
   xmlns:dc="http://purl.org/dc/elements/1.1/"
   xmlns:cc="http://creativecommons.org/ns#"
   xmlns:rdf="http://www.w3.org/1999/02/22-rdf-syntax-ns#"
   xmlns:svg="http://www.w3.org/2000/svg"
   xmlns="http://www.w3.org/2000/svg"
   xmlns:xlink="http://www.w3.org/1999/xlink"
   xmlns:sodipodi="http://sodipodi.sourceforge.net/DTD/sodipodi-0.dtd"
   xmlns:inkscape="http://www.inkscape.org/namespaces/inkscape"
   width="80"
   height="16"
   id="svg4428"
   version="1.1"
   inkscape:version="0.92.1 r15371"
   sodipodi:docname="close.svg">
  <defs
     id="defs4430">
    <linearGradient
       id="linearGradient3913">
      <stop
         style="stop-color:#ffffff;stop-opacity:1;"
         offset="0"
         id="stop3915" />
      <stop
         id="stop3921"
         offset="0.5"
         style="stop-color:#ffffff;stop-opacity:0.49803922;" />
      <stop
         style="stop-color:#ffffff;stop-opacity:0;"
         offset="1"
         id="stop3917" />
    </linearGradient>
    <linearGradient
       id="linearGradient3868">
      <stop
         style="stop-color:#5a5a5a;stop-opacity:1;"
         offset="0"
         id="stop3870" />
      <stop
         style="stop-color:#646464;stop-opacity:1;"
         offset="1"
         id="stop3872" />
    </linearGradient>
    <linearGradient
       id="linearGradient3813">
      <stop
         style="stop-color:#666666;stop-opacity:1;"
         offset="0"
         id="stop3815" />
      <stop
         style="stop-color:#636363;stop-opacity:1;"
         offset="1"
         id="stop3817" />
    </linearGradient>
    <linearGradient
       id="linearGradient3787">
      <stop
         style="stop-color:#e5e5df;stop-opacity:1;"
         offset="0"
         id="stop3789" />
      <stop
         style="stop-color:#dadad4;stop-opacity:1;"
         offset="1"
         id="stop3791" />
    </linearGradient>
    <linearGradient
       id="linearGradient3806-3-5-6">
      <stop
         style="stop-color:#303030;stop-opacity:1;"
         offset="0"
         id="stop3808-6-9-1" />
      <stop
         style="stop-color:#232323;stop-opacity:1;"
         offset="1"
         id="stop3810-4-6-3" />
    </linearGradient>
    <linearGradient
       inkscape:collect="always"
       xlink:href="#linearGradient3787"
       id="linearGradient3793"
       x1="40"
       y1="1044.3622"
       x2="40"
       y2="1032.3622"
       gradientUnits="userSpaceOnUse" />
    <linearGradient
       inkscape:collect="always"
       xlink:href="#linearGradient3787"
       id="linearGradient3828"
       gradientUnits="userSpaceOnUse"
       x1="40"
       y1="1044.3622"
       x2="40"
       y2="1032.3622"
       gradientTransform="matrix(1.1666666,0,0,1.0769231,-6.5,-80.335554)" />
    <linearGradient
       inkscape:collect="always"
       xlink:href="#linearGradient3787-8"
       id="linearGradient3835"
       gradientUnits="userSpaceOnUse"
       gradientTransform="matrix(1.1666666,0,0,1.0769231,-35.5,-1105.6978)"
       x1="40"
       y1="1044.3622"
       x2="40"
       y2="1032.3622" />
    <linearGradient
       inkscape:collect="always"
       xlink:href="#linearGradient3787-8"
       id="linearGradient3835-4"
       gradientUnits="userSpaceOnUse"
       gradientTransform="matrix(1.1666666,0,0,1.0769231,-35.5,-1105.6978)"
       x1="40"
       y1="1044.3622"
       x2="40"
       y2="1032.3622" />
    <linearGradient
       id="linearGradient3787-8">
      <stop
         style="stop-color:#f5f5ee;stop-opacity:1;"
         offset="0"
         id="stop3789-2" />
      <stop
         style="stop-color:#e6e6df;stop-opacity:1;"
         offset="1"
         id="stop3791-6" />
    </linearGradient>
    <linearGradient
       inkscape:collect="always"
       xlink:href="#linearGradient3787-8"
       id="linearGradient3835-3"
       gradientUnits="userSpaceOnUse"
       gradientTransform="matrix(1.1666666,0,0,1.0769231,-35.5,-1105.6978)"
       x1="40"
       y1="1044.3622"
       x2="40"
       y2="1032.3622" />
    <linearGradient
       id="linearGradient3787-7">
      <stop
         style="stop-color:#f5f5ee;stop-opacity:1;"
         offset="0"
         id="stop3789-3" />
      <stop
         style="stop-color:#e6e6e0;stop-opacity:1;"
         offset="1"
         id="stop3791-3" />
    </linearGradient>
    <linearGradient
       inkscape:collect="always"
       xlink:href="#linearGradient3787"
       id="linearGradient3807"
       x1="11"
       y1="15.75"
       x2="11"
       y2="8.25"
       gradientUnits="userSpaceOnUse" />
    <linearGradient
       inkscape:collect="always"
       xlink:href="#linearGradient3813"
       id="linearGradient3819"
       x1="29.5"
       y1="15.2"
       x2="29.5"
       y2="8.8000002"
       gradientUnits="userSpaceOnUse" />
    <linearGradient
       inkscape:collect="always"
       xlink:href="#linearGradient4231"
       id="linearGradient3807-1"
       x1="10"
       y1="7.0000038"
       x2="10"
       y2="15.888954"
       gradientUnits="userSpaceOnUse" />
    <linearGradient
       id="linearGradient4231">
      <stop
         id="stop4233"
         offset="0"
         style="stop-color:#e7e7e1;stop-opacity:1;" />
      <stop
         id="stop4239"
         offset="1"
         style="stop-color:#dadad3;stop-opacity:1;" />
    </linearGradient>
    <linearGradient
       inkscape:collect="always"
       xlink:href="#linearGradient4231-1"
       id="linearGradient3807-1-1"
       x1="10"
       y1="15.888976"
       x2="10"
       y2="7.0000262"
       gradientUnits="userSpaceOnUse" />
    <linearGradient
       id="linearGradient4231-1">
      <stop
         id="stop4233-6"
         offset="0"
         style="stop-color:#e5e5de;stop-opacity:1;" />
      <stop
         id="stop4239-7"
         offset="1"
         style="stop-color:#dadad3;stop-opacity:1;" />
    </linearGradient>
    <linearGradient
       id="linearGradient4363">
      <stop
         style="stop-color:#979791;stop-opacity:1;"
         offset="0"
         id="stop4365" />
      <stop
         style="stop-color:#dadad4;stop-opacity:0;"
         offset="1"
         id="stop4367" />
    </linearGradient>
    <linearGradient
       id="linearGradient4363-7">
      <stop
         style="stop-color:#f5f5ef;stop-opacity:1;"
         offset="0"
         id="stop4365-9" />
      <stop
         style="stop-color:#dadad4;stop-opacity:0;"
         offset="1"
         id="stop4367-8" />
    </linearGradient>
    <linearGradient
       inkscape:collect="always"
       xlink:href="#linearGradient4231-7"
       id="linearGradient4361"
       gradientUnits="userSpaceOnUse"
       gradientTransform="matrix(1.1875,0,0,1,-41.25,0)"
       x1="248.63158"
       y1="79"
       x2="248.63158"
       y2="58" />
    <linearGradient
       id="linearGradient4231-7">
      <stop
         id="stop4233-4"
         offset="0"
         style="stop-color:#e6e6df;stop-opacity:1;" />
      <stop
         id="stop4239-8"
         offset="1"
         style="stop-color:#d1d1ca;stop-opacity:1;" />
    </linearGradient>
    <linearGradient
       inkscape:collect="always"
       xlink:href="#linearGradient4231-7"
       id="linearGradient3127"
       gradientUnits="userSpaceOnUse"
       gradientTransform="matrix(1.1875,0,0,1,-262.25,-55.99998)"
       x1="248.63158"
       y1="79"
       x2="248.63158"
       y2="58" />
    <linearGradient
       inkscape:collect="always"
       xlink:href="#linearGradient4231-7"
       id="linearGradient3154"
       gradientUnits="userSpaceOnUse"
       gradientTransform="matrix(1.1875,0,0,1,-262.25,-55.99998)"
       x1="248.63158"
       y1="79"
       x2="248.63158"
       y2="58" />
    <linearGradient
       inkscape:collect="always"
       xlink:href="#linearGradient4231-7"
       id="linearGradient3159"
       gradientUnits="userSpaceOnUse"
       gradientTransform="matrix(1.1875,0,0,1,-249.25,-54.99998)"
       x1="248.63158"
       y1="79"
       x2="248.63158"
       y2="58" />
    <linearGradient
       inkscape:collect="always"
       xlink:href="#linearGradient4231-7-9"
       id="linearGradient3159-0"
       gradientUnits="userSpaceOnUse"
       gradientTransform="matrix(1.1875,0,0,1,-262.25,-55.99998)"
       x1="248.63158"
       y1="79"
       x2="248.63158"
       y2="58" />
    <linearGradient
       id="linearGradient4231-7-9">
      <stop
         id="stop4233-4-2"
         offset="0"
         style="stop-color:#e6e6df;stop-opacity:1;" />
      <stop
         id="stop4239-8-9"
         offset="1"
         style="stop-color:#d1d1ca;stop-opacity:1;" />
    </linearGradient>
    <linearGradient
       id="linearGradient4231-5">
      <stop
         id="stop4233-41"
         offset="0"
         style="stop-color:#e5e5de;stop-opacity:1;" />
      <stop
         id="stop4239-73"
         offset="1"
         style="stop-color:#dadad3;stop-opacity:1;" />
    </linearGradient>
    <linearGradient
       inkscape:collect="always"
       xlink:href="#linearGradient4231-7-7"
       id="linearGradient3159-1"
       gradientUnits="userSpaceOnUse"
       gradientTransform="matrix(1.1875,0,0,1,-262.25,-55.99998)"
       x1="248.63158"
       y1="79"
       x2="248.63158"
       y2="58" />
    <linearGradient
       id="linearGradient4231-7-7">
      <stop
         id="stop4233-4-7"
         offset="0"
         style="stop-color:#e6e6df;stop-opacity:1;" />
      <stop
         id="stop4239-8-2"
         offset="1"
         style="stop-color:#d1d1ca;stop-opacity:1;" />
    </linearGradient>
    <linearGradient
       inkscape:collect="always"
       xlink:href="#linearGradient4231-73"
       id="linearGradient3807-1-7"
       x1="10"
       y1="15.888976"
       x2="10"
       y2="7.0000262"
       gradientUnits="userSpaceOnUse" />
    <linearGradient
       id="linearGradient4231-73">
      <stop
         id="stop4233-1"
         offset="0"
         style="stop-color:#e5e5de;stop-opacity:1;" />
      <stop
         id="stop4239-85"
         offset="1"
         style="stop-color:#dadad3;stop-opacity:1;" />
    </linearGradient>
    <radialGradient
       inkscape:collect="always"
       xlink:href="#linearGradient4363-7"
       id="radialGradient5329"
       cx="-14.843177"
       cy="1034.9207"
       fx="-14.843177"
       fy="1034.9207"
       r="8.0063524"
       gradientTransform="matrix(1,0,0,0.49292897,0.12127985,524.5964)"
       gradientUnits="userSpaceOnUse" />
    <filter
       inkscape:collect="always"
       id="filter5355"
       x="-0.18225814"
       width="1.3645163"
       y="-0.37276217"
       height="1.7455244">
      <feGaussianBlur
         inkscape:collect="always"
         stdDeviation="1.2065266"
         id="feGaussianBlur5357" />
    </filter>
    <radialGradient
       gradientUnits="userSpaceOnUse"
       gradientTransform="matrix(1,0,0,0.49292897,0.12127985,524.5964)"
       r="8.0063524"
       fy="1034.9207"
       fx="-14.843177"
       cy="1034.9207"
       cx="-14.843177"
       id="radialGradient5329-3"
       xlink:href="#linearGradient4363-7"
       inkscape:collect="always" />
    <filter
       height="1.7455244"
       y="-0.37276217"
       width="1.3645163"
       x="-0.18225814"
       id="filter5355-6"
       inkscape:collect="always">
      <feGaussianBlur
         id="feGaussianBlur5357-8"
         stdDeviation="1.2065266"
         inkscape:collect="always" />
    </filter>
    <radialGradient
       gradientUnits="userSpaceOnUse"
       gradientTransform="matrix(1,0,0,0.49292897,0.12127985,524.5964)"
       r="8.0063524"
       fy="1034.9207"
       fx="-14.843177"
       cy="1034.9207"
       cx="-14.843177"
       id="radialGradient5329-9"
       xlink:href="#linearGradient4363-7"
       inkscape:collect="always" />
    <filter
       height="1.7455244"
       y="-0.37276217"
       width="1.3645163"
       x="-0.18225814"
       id="filter5355-3"
       inkscape:collect="always">
      <feGaussianBlur
         id="feGaussianBlur5357-3"
         stdDeviation="1.2065266"
         inkscape:collect="always" />
    </filter>
    <radialGradient
       gradientUnits="userSpaceOnUse"
       gradientTransform="matrix(1,0,0,0.49292897,0.12127985,524.5964)"
       r="8.0063524"
       fy="1034.9207"
       fx="-14.843177"
       cy="1034.9207"
       cx="-14.843177"
       id="radialGradient5329-0"
       xlink:href="#linearGradient4363-7"
       inkscape:collect="always" />
    <filter
       height="1.7455244"
       y="-0.37276217"
       width="1.3645163"
       x="-0.18225814"
       id="filter5355-4"
       inkscape:collect="always">
      <feGaussianBlur
         id="feGaussianBlur5357-2"
         stdDeviation="1.2065266"
         inkscape:collect="always" />
    </filter>
    <radialGradient
       gradientUnits="userSpaceOnUse"
       gradientTransform="matrix(1,0,0,0.49292897,0.12127985,524.5964)"
       r="8.0063524"
       fy="1034.9207"
       fx="-14.843177"
       cy="1034.9207"
       cx="-14.843177"
       id="radialGradient5329-6"
       xlink:href="#linearGradient4363-7"
       inkscape:collect="always" />
    <filter
       height="1.7455244"
       y="-0.37276217"
       width="1.3645163"
       x="-0.18225814"
       id="filter5355-9"
       inkscape:collect="always">
      <feGaussianBlur
         id="feGaussianBlur5357-4"
         stdDeviation="1.2065266"
         inkscape:collect="always" />
    </filter>
  </defs>
  <sodipodi:namedview
     id="base"
     pagecolor="#120000"
     bordercolor="#666666"
     borderopacity="1.0"
     inkscape:pageopacity="0"
     inkscape:pageshadow="2"
     inkscape:zoom="21.31"
     inkscape:cx="24.727313"
     inkscape:cy="5.9934343"
     inkscape:document-units="px"
     inkscape:current-layer="layer1"
     showgrid="true"
     inkscape:snap-bbox="true"
     inkscape:window-width="1920"
     inkscape:window-height="978"
     inkscape:window-x="0"
     inkscape:window-y="0"
     inkscape:window-maximized="1"
     showborder="true"
     inkscape:showpageshadow="false"
     inkscape:pagecheckerboard="true"
     showguides="true"
     inkscape:guide-bbox="true">
    <inkscape:grid
       type="xygrid"
       id="grid4436"
       empspacing="5"
       visible="true"
       enabled="true"
       snapvisiblegridlinesonly="true"
       originx="0"
       originy="0"
       spacingx="1.0666667"
       spacingy="1.0666667" />
    <sodipodi:guide
       position="16,12.8"
       orientation="1,0"
       id="guide6248"
       inkscape:locked="false" />
    <sodipodi:guide
       position="32.000001,12.8"
       orientation="1,0"
       id="guide6250"
       inkscape:locked="false" />
    <sodipodi:guide
       position="48.000002,14.933334"
       orientation="1,0"
       id="guide6252"
       inkscape:locked="false" />
    <sodipodi:guide
       position="64.000002,17.066667"
       orientation="1,0"
       id="guide6254"
       inkscape:locked="false" />
  </sodipodi:namedview>
  <metadata
     id="metadata4433">
    <rdf:RDF>
      <cc:Work
         rdf:about="">
        <dc:format>image/svg+xml</dc:format>
        <dc:type
           rdf:resource="http://purl.org/dc/dcmitype/StillImage" />
        <dc:title />
      </cc:Work>
    </rdf:RDF>
  </metadata>
  <g
     inkscape:label="Layer 1"
     inkscape:groupmode="layer"
     id="layer1"
     transform="translate(0,-1106.5197)">
    <g
       id="4"
       inkscape:label="#g3842"
       transform="translate(86.4,-3.2)" />
    <path
       style="opacity:0;fill:url(#radialGradient5329);fill-opacity:1;stroke:#000000;stroke-width:0.1;stroke-linecap:butt;stroke-linejoin:miter;stroke-miterlimit:4;stroke-dasharray:none;stroke-opacity:1;filter:url(#filter5355)"
       d="m -22.665748,1038.6229 h 15.8877044 c -0.3742772,-10.7481 -15.8936154,-9.9594 -15.8877044,0 z"
       id="path3863"
       inkscape:connector-curvature="0"
       sodipodi:nodetypes="ccc"
       transform="matrix(0.99862602,0,0,0.91748438,122.43674,158.27533)" />
    <g
       id="4-5"
       inkscape:label="#g3842"
       transform="translate(140.26664,-35.73799)" />
    <path
       style="opacity:0;fill:url(#radialGradient5329-3);fill-opacity:1;stroke:#000000;stroke-width:0.1;stroke-linecap:butt;stroke-linejoin:miter;stroke-miterlimit:4;stroke-dasharray:none;stroke-opacity:1;filter:url(#filter5355-6)"
       d="m -22.665748,1038.6229 h 15.8877044 c -0.3742772,-10.7481 -15.8936154,-9.9594 -15.8877044,0 z"
       id="path3863-1"
       inkscape:connector-curvature="0"
       sodipodi:nodetypes="ccc"
       transform="matrix(0.99862602,0,0,0.91748438,176.30338,125.73734)" />
    <g
       id="active-center">
      <rect
         y="1106.6184"
         x="0.098765433"
         height="15.802469"
         width="15.802468"
         id="rect4603"
         style="opacity:0;fill:#a8bb15;fill-opacity:1;stroke:#000000;stroke-width:0.19753087;stroke-miterlimit:4;stroke-dasharray:none;stroke-opacity:0.19607843" />
      <path
         inkscape:connector-curvature="0"
         d="m 8.0000269,1121.5197 c 3.8660121,0 6.9999701,-3.134 6.9999701,-7 0,-3.8659 -3.133958,-6.9999 -6.9999701,-6.9999 -3.8659955,0 -7.00002721,3.134 -7.00002721,6.9999 0,3.866 3.13403171,7 7.00002721,7"
         style="fill:#e1463f;fill-opacity:1;fill-rule:evenodd;stroke:none;stroke-width:0.01637699"
         id="path14" />
      <path
         inkscape:connector-curvature="0"
         d="m 8.0000299,1120.5197 c 3.3137041,0 5.9999701,-2.6864 5.9999701,-6.0001 0,-3.3136 -2.686266,-5.9999 -5.9999701,-5.9999 C 4.6863411,1108.5197 2,1111.206 2,1114.5196 c 0,3.3137 2.6863411,6.0001 6.0000299,6.0001"
         style="fill:#ff5f57;fill-opacity:1;fill-rule:evenodd;stroke:none;stroke-width:0.01534233"
         id="path16" />
    </g>
    <g
       id="4-6"
       inkscape:label="#g3842"
       transform="translate(113.59997,-37.871323)" />
    <path
       style="opacity:0;fill:url(#radialGradient5329-9);fill-opacity:1;stroke:#000000;stroke-width:0.1;stroke-linecap:butt;stroke-linejoin:miter;stroke-miterlimit:4;stroke-dasharray:none;stroke-opacity:1;filter:url(#filter5355-3)"
       d="m -22.665748,1038.6229 h 15.8877044 c -0.3742772,-10.7481 -15.8936154,-9.9594 -15.8877044,0 z"
       id="path3863-4"
       inkscape:connector-curvature="0"
       sodipodi:nodetypes="ccc"
       transform="matrix(0.99862602,0,0,0.91748438,149.63671,123.60401)" />
    <g
       id="hover-center">
      <rect
         y="1106.6184"
         x="16.098766"
         height="15.802469"
         width="15.802468"
         id="rect4603-3"
         style="opacity:0;fill:#a8bb15;fill-opacity:1;stroke:#000000;stroke-width:0.19753087;stroke-miterlimit:4;stroke-dasharray:none;stroke-opacity:0.19607843" />
      <path
         inkscape:connector-curvature="0"
         d="m 24.000027,1121.5197 c 3.866012,0 6.99997,-3.134 6.99997,-7 0,-3.8659 -3.133958,-6.9999 -6.99997,-6.9999 -3.865996,0 -7.000027,3.134 -7.000027,6.9999 0,3.866 3.134031,7 7.000027,7"
         style="fill:#e1463f;fill-opacity:1;fill-rule:evenodd;stroke:none;stroke-width:0.01637699"
         id="path14-04" />
      <path
         inkscape:connector-curvature="0"
         d="m 24.00003,1120.5197 c 3.313704,0 5.99997,-2.6862 5.99997,-6 0,-3.3138 -2.686266,-6 -5.99997,-6 -3.31369,0 -6.00003,2.6862 -6.00003,6 0,3.3138 2.68634,6 6.00003,6"
         style="fill:#ff5f57;fill-opacity:1;fill-rule:evenodd;stroke:none;stroke-width:0.01534233"
         id="path16-6" />
      <circle
         r="2.6666667"
         cy="1114.5197"
         cx="24"
         id="path4561"
         style="opacity:1;fill:#9f1d2b;fill-opacity:1;stroke:#000000;stroke-width:0.2;stroke-miterlimit:4;stroke-dasharray:none;stroke-opacity:0.19607843" />
    </g>
    <g
       id="4-2"
       inkscape:label="#g3842"
       transform="translate(86.933299,-22.78623)" />
    <path
       style="opacity:0;fill:url(#radialGradient5329-0);fill-opacity:1;stroke:#000000;stroke-width:0.1;stroke-linecap:butt;stroke-linejoin:miter;stroke-miterlimit:4;stroke-dasharray:none;stroke-opacity:1;filter:url(#filter5355-4)"
       d="m -22.665748,1038.6229 h 15.8877044 c -0.3742772,-10.7481 -15.8936154,-9.9594 -15.8877044,0 z"
       id="path3863-2"
       inkscape:connector-curvature="0"
       sodipodi:nodetypes="ccc"
       transform="matrix(0.99862602,0,0,0.91748438,122.97004,138.6891)" />
    <g
       id="pressed-center">
      <rect
         y="1106.6184"
         x="32.098766"
         height="15.802469"
         width="15.802468"
         id="rect4603-6"
         style="opacity:0;fill:#a8bb15;fill-opacity:1;stroke:#000000;stroke-width:0.19753087;stroke-miterlimit:4;stroke-dasharray:none;stroke-opacity:0.19607843" />
      <path
         inkscape:connector-curvature="0"
         d="m 40.000035,1122.5197 c 4.418301,0 7.999969,-3.5817 7.999969,-8.0001 0,-4.4181 -3.581668,-7.9999 -7.999969,-7.9999 -4.418283,0 -8.000035,3.5818 -8.000035,7.9999 0,4.4184 3.581752,8.0001 8.000035,8.0001"
         style="fill:#e1463f;fill-opacity:1;fill-rule:evenodd;stroke:none;stroke-width:0.01871657"
         id="path14-05" />
      <path
         inkscape:connector-curvature="0"
         d="m 40.000035,1121.5197 c 3.865987,0 6.999965,-3.134 6.999965,-7.0001 0,-3.866 -3.133978,-6.9999 -6.999965,-6.9999 -3.865971,0 -7.000035,3.1339 -7.000035,6.9999 0,3.8661 3.134064,7.0001 7.000035,7.0001"
         style="fill:#ff5f57;fill-opacity:1;fill-rule:evenodd;stroke:none;stroke-width:0.01789938"
         id="path16-52" />
      <circle
         r="2.6666667"
         cy="1114.5197"
         cx="40"
         id="path4557"
         style="opacity:1;fill:#9f1d2b;fill-opacity:1;stroke:#000000;stroke-width:0.2;stroke-miterlimit:4;stroke-dasharray:none;stroke-opacity:0.19607843" />
    </g>
    <g
       id="4-1"
       inkscape:label="#g3842"
       transform="translate(124.26667,-26.137955)" />
    <path
       style="opacity:0;fill:url(#radialGradient5329-6);fill-opacity:1;stroke:#000000;stroke-width:0.1;stroke-linecap:butt;stroke-linejoin:miter;stroke-miterlimit:4;stroke-dasharray:none;stroke-opacity:1;filter:url(#filter5355-9)"
       d="m -22.665748,1038.6229 h 15.8877044 c -0.3742772,-10.7481 -15.8936154,-9.9594 -15.8877044,0 z"
       id="path3863-28"
       inkscape:connector-curvature="0"
       sodipodi:nodetypes="ccc"
       transform="matrix(0.99862602,0,0,0.91748438,160.30341,135.33737)" />
    <g
       id="inactive-center">
      <rect
         y="1106.6184"
         x="48.098766"
         height="15.802469"
         width="15.802468"
         id="rect4603-7"
         style="opacity:0;fill:#a8bb15;fill-opacity:1;stroke:#000000;stroke-width:0.19753087;stroke-miterlimit:4;stroke-dasharray:none;stroke-opacity:0.19607843" />
      <path
         inkscape:connector-curvature="0"
         d="m 55.999996,1121.5197 c 3.865994,0 7.000004,-3.134 7.000004,-7.0001 0,-3.8659 -3.13401,-6.9999 -7.000004,-6.9999 -3.865978,0 -6.999996,3.134 -6.999996,6.9999 0,3.8661 3.134018,7.0001 6.999996,7.0001"
         style="fill:#d1d1d1;fill-opacity:1;fill-rule:evenodd;stroke:none;stroke-width:0.016377"
         id="path14-0-9" />
      <path
         inkscape:connector-curvature="0"
         d="m 55.999999,1120.5197 c 3.313687,0 6.000001,-2.6862 6.000001,-6 0,-3.3137 -2.686314,-6 -6.000001,-6 -3.313672,0 -5.999999,2.6863 -5.999999,6 0,3.3138 2.686327,6 5.999999,6"
         style="fill:#dcdcdc;fill-opacity:1;fill-rule:evenodd;stroke:none;stroke-width:0.01534227"
         id="path16-8-2" />
    </g>
    <g
       id="deactivated-center-8"
       transform="matrix(0.02211826,0,0,-0.02211835,134.58301,1094.8861)">
      <path
         inkscape:connector-curvature="0"
         d="m 458.87893,4.8749973 c 251.80054,0 455.92534,204.1212727 455.92534,455.9250027 0,251.79627 -204.1248,455.92107 -455.92534,455.92107 C 207.07947,916.72107 2.9541653,712.59627 2.9541653,460.8 2.9541653,208.99627 207.07947,4.8749973 458.87893,4.8749973"
         style="fill:#b4b4b4;fill-opacity:1;fill-rule:evenodd;stroke:none;stroke-width:1.06666672"
         id="path14-0-0-8" />
      <path
         inkscape:connector-curvature="0"
         d="m 458.87893,43.650027 c 230.384,0 417.14987,186.762773 417.14987,417.149973 0,230.37867 -186.76587,417.1456 -417.14987,417.1456 C 228.496,877.9456 41.729173,691.17867 41.729173,460.8 41.729173,230.4128 228.496,43.650027 458.87893,43.650027"
         style="fill:#c7c7c7;fill-opacity:1;fill-rule:evenodd;stroke:none;stroke-width:1.06666672"
         id="path16-8-4-8" />
    </g>
    <g
       id="deactivated-center">
      <rect
         y="1106.6184"
         x="64.098763"
         height="15.802469"
         width="15.802468"
         id="rect4603-5"
         style="opacity:0;fill:#a8bb15;fill-opacity:1;stroke:#000000;stroke-width:0.19753087;stroke-miterlimit:4;stroke-dasharray:none;stroke-opacity:0.19607843" />
      <path
         inkscape:connector-curvature="0"
         d="m 71.999996,1121.5197 c 3.865994,0 7.000004,-3.134 7.000004,-7.0001 0,-3.8659 -3.13401,-6.9999 -7.000004,-6.9999 -3.865978,0 -6.999996,3.134 -6.999996,6.9999 0,3.8661 3.134018,7.0001 6.999996,7.0001"
         style="fill:#d1d1d1;fill-opacity:1;fill-rule:evenodd;stroke:none;stroke-width:0.016377"
         id="path14-0-9-3" />
      <path
         inkscape:connector-curvature="0"
         d="m 71.999999,1120.5197 c 3.313687,0 6.000001,-2.6862 6.000001,-6 0,-3.3137 -2.686314,-6 -6.000001,-6 -3.313672,0 -5.999999,2.6863 -5.999999,6 0,3.3138 2.686327,6 5.999999,6"
         style="fill:#dcdcdc;fill-opacity:1;fill-rule:evenodd;stroke:none;stroke-width:0.01534227"
         id="path16-8-2-8" />
    </g>
  </g>
</svg>
